{
  "type": "Template",
  "name": "Social",
  "base": true,
  "description": "List of links with a big Icons, good to link social media",
  "categories": [
    "Social"
  ],
  "component": {
    "type": "Group",
    "element": "section",
    "extendable": [
      "Item:icon-focused"
    ],
    "class": "flex flex-row flex-wrap gap-20 justify-center",
    "content": [
      {
        "type": "Item",
        "icon": "linkedin-fill",
        "name": "LinkedIn",
        "link": "https://linkedIn.de",
        "design": "icon-focused",
        "color": "#3584e4",
        "colorOnlyIcon": true
      },
      {
        "type": "Item",
        "icon": "gitlab-line",
        "name": "GitLab",
        "link": "https://gitlab.com/cotton-coding",
        "design": "icon-focused",
        "color": "#e66100",
        "colorOnlyIcon": true
      }
    ]
  }
}