{
  "type": "Template",
  "id": "Item:icon-focused",
  "name": "Item:icon-focused",
  "base": true,
  "secondary": true,
  "short": "Icon",
  "description": "Link to other sides like social media",
  "categories": [
    "Social"
  ],
  "component": {
    "type": "Item",
    "design": "icon-focused",
    "icon": "remixicon-line",
    "name": "replace",
    "colorOnlyIcon": true
  }
}