{
  "type": "Template",
  "name": "Navigation",
  "base": true,
  "short": "Navigation",
  "description": "Navigation to link to different pages",
  "categories": [
    "Navigration"
  ],
  "component": {
    "type": "Group",
    "element": "div",
    "class": "flex flex-wrap gap-10 justify-center",
    "extendable": [
      "Item:nav"
    ],
    "content": [
      {
        "type": "Item",
        "name": "Home",
        "link": "/"
      }
    ]
  }
}